excess3_fsm_comprehensive.vcd
$date
	Fri Sep 26 03:25:24 2025
$end
$version
	Icarus Verilog
$end
$timescale
	1s
$end
$scope module excess3_fsm_comprehensive_testbench $end
$var wire 1 ! V $end
$var wire 1 " S $end
$var reg 1 # CLK $end
$var reg 1 $ RST $end
$var reg 1 % X $end
$var reg 4 & expected_excess3 [3:0] $end
$var reg 4 ' s_sequence [3:0] $end
$var reg 4 ( v_sequence [3:0] $end
$var integer 32 ) fail_count [31:0] $end
$var integer 32 * log_file [31:0] $end
$var integer 32 + pass_count [31:0] $end
$var integer 32 , summary_file [31:0] $end
$var integer 32 - test_count [31:0] $end
$scope module UUT $end
$var wire 1 # CLK $end
$var wire 1 $ RST $end
$var wire 1 % X $end
$var parameter 3 . S0 $end
$var parameter 3 / S1 $end
$var parameter 3 0 S2 $end
$var parameter 3 1 S3 $end
$var parameter 3 2 S4 $end
$var parameter 3 3 S5 $end
$var parameter 3 4 S6 $end
$var parameter 3 5 S7 $end
$var reg 3 6 Q [2:0] $end
$var reg 1 " S $end
$var reg 1 ! V $end
$upscope $end
$scope task reset_fsm $end
$upscope $end
$scope task test_binary_sequence $end
$var reg 4 7 binary_input [3:0] $end
$var reg 4 8 decimal_value [3:0] $end
$upscope $end
$scope task test_edge_cases $end
$upscope $end
$upscope $end
$enddefinitions $end
$comment Show the parameter values. $end
$dumpall
b111 5
b110 4
b101 3
b100 2
b11 1
b10 0
b1 /
b0 .
$end
#0
$dumpvars
b0 8
b0 7
b0 6
b1 -
b10000000000000000000000000000100 ,
b0 +
b10000000000000000000000000000011 *
b0 )
bx (
bx '
b11 &
0%
1$
0#
1"
0!
$end
#5
1#
#10
0#
#15
1#
0$
#20
b1 6
0#
#25
1#
#30
1!
0"
b11 6
0#
#35
1#
#40
b101 6
0#
#45
1#
#50
0!
1"
b0 6
0#
#55
1#
#60
0#
1$
b100 &
b10 -
b1 8
b1 7
b1 +
b110 (
b1001 '
#65
1#
#70
0#
#75
1#
0$
#80
b1 6
0#
#85
1#
#90
1!
0"
b11 6
0#
#95
1#
#100
b101 6
0#
#105
1#
#110
0!
1"
b0 6
0#
1%
#115
1#
#120
0#
1$
b101 &
b11 -
b10 8
b10 7
b10 +
#125
1#
#130
0#
#135
1#
0$
#140
b1 6
0#
0%
#145
1#
#150
1!
0"
b11 6
0#
#155
1#
#160
b101 6
0#
1%
#165
1#
#170
0!
1"
b0 6
0#
0%
#175
1#
#180
0#
1$
b110 &
b100 -
b11 8
b11 7
b11 +
#185
1#
#190
0#
#195
1#
0$
#200
b1 6
0#
#205
1#
#210
1!
0"
b11 6
0#
#215
1#
#220
b101 6
0#
1%
#225
1#
#230
0!
1"
b0 6
0#
#235
1#
#240
0#
1$
b111 &
b101 -
b100 8
b100 7
b100 +
#245
1#
#250
0#
#255
1#
0$
#260
b1 6
0#
0%
#265
1#
#270
b100 6
0#
1%
#275
1#
#280
1!
0"
b101 6
0#
0%
#285
1#
#290
0!
1"
b0 6
0#
#295
1#
#300
0#
1$
b1000 &
b110 -
b101 8
b101 7
b101 +
b10 (
b1101 '
#305
1#
#310
0#
#315
1#
0$
#320
b1 6
0#
#325
1#
#330
b100 6
0#
1%
#335
1#
#340
1!
0"
b101 6
0#
0%
#345
1#
#350
0!
1"
b0 6
0#
1%
#355
1#
#360
0#
1$
b1001 &
b111 -
b110 8
b110 7
b110 +
#365
1#
#370
0#
#375
1#
0$
#380
b1 6
0#
0%
#385
1#
#390
b100 6
0#
1%
#395
1#
#400
b110 6
0#
#405
1#
#410
b0 6
0#
0%
#415
1#
#420
0#
1$
b1010 &
b1000 -
b111 8
b111 7
b111 +
b0 (
b1111 '
#425
1#
#430
0#
#435
1#
0$
#440
b1 6
0#
#445
1#
#450
b100 6
0#
1%
#455
1#
#460
b110 6
0#
#465
1#
#470
b0 6
0#
#475
1#
#480
0#
1$
b1011 &
b1001 -
b1000 8
b1000 7
b1000 +
#485
1#
#490
0#
#495
1#
0$
#500
1!
0"
b10 6
0#
#505
1#
#510
0!
1"
b100 6
0#
0%
#515
1#
#520
1!
0"
b101 6
0#
#525
1#
#530
0!
1"
b0 6
0#
#535
1#
#540
0#
1$
b1100 &
b1010 -
b1001 8
b1001 7
b1001 +
b1010 (
b101 '
#545
1#
#550
0#
#555
1#
0$
#560
1!
0"
b10 6
0#
1%
#565
1#
#570
0!
1"
b100 6
0#
0%
#575
1#
#580
1!
0"
b101 6
0#
#585
1#
#590
0!
1"
b0 6
0#
1%
#595
1#
#600
0#
1$
b1101 &
b1011 -
b1010 8
b1010 7
b1010 +
#605
1#
#610
0#
#615
1#
0$
#620
1!
0"
b10 6
0#
#625
1#
#630
0!
1"
b100 6
0#
0%
#635
1#
#640
b110 6
0#
1%
#645
1#
#650
b0 6
0#
0%
#655
1#
#660
0#
1$
b1110 &
b1100 -
b1011 8
b1011 7
b1011 +
b1000 (
b111 '
#665
1#
#670
0#
#675
1#
0$
#680
1!
0"
b10 6
0#
1%
#685
1#
#690
0!
1"
b100 6
0#
0%
#695
1#
#700
b110 6
0#
1%
#705
1#
#710
b0 6
0#
#715
1#
#720
0#
1$
b1111 &
b1101 -
b1100 8
b1100 7
b1100 +
#725
1#
#730
0#
#735
1#
0$
#740
1!
0"
b10 6
0#
#745
1#
#750
0!
1"
b100 6
0#
#755
1#
#760
1!
0"
b101 6
0#
0%
#765
1#
#770
0!
1"
b0 6
0#
#775
1#
#780
0#
1$
b0 &
b1110 -
b1101 8
b1101 7
b1101 +
b1010 (
b101 '
#785
1#
#790
0#
#795
1#
0$
#800
1!
0"
b10 6
0#
1%
#805
1#
#810
0!
1"
b100 6
0#
#815
1#
#820
1!
0"
b101 6
0#
0%
#825
1#
#830
0!
1"
b0 6
0#
1%
#835
1#
#840
0#
1$
b1 &
b1111 -
b1110 8
b1110 7
b1110 +
#845
1#
#850
0#
#855
1#
0$
#860
1!
0"
b10 6
0#
#865
1#
#870
0!
1"
b100 6
0#
#875
1#
#880
b110 6
0#
#885
1#
#890
b0 6
0#
0%
#895
1#
#900
0#
1$
b10 &
b10000 -
b1111 8
b1111 7
b1111 +
b1000 (
b111 '
#905
1#
#910
0#
#915
1#
0$
#920
1!
0"
b10 6
0#
1%
#925
1#
#930
0!
1"
b100 6
0#
#935
1#
#940
b110 6
0#
#945
1#
#950
b0 6
0#
#955
1#
#960
0#
1$
b10000 +
#965
1#
#970
0#
#975
1#
0$
#980
1!
0"
b10 6
0#
#985
1#
#990
0!
1"
b100 6
0#
0%
#995
1#
#1000
b0 6
0#
1$
#1005
1#
#1010
0#
#1015
1#
0$
#1020
0#
1$
#1025
1#
#1030
0#
#1035
1#
0$
#1040
b1 6
0#
#1045
1#
#1050
b100 6
0#
1%
#1055
1#
#1060
1!
0"
b101 6
0#
0%
#1065
1#
#1070
0!
1"
b0 6
0#
1%
#1075
1#
#1080
1!
0"
b10 6
0#
#1085
1#
#1090
0!
1"
b100 6
0#
0%
#1095
1#
#1100
b110 6
0#
1%
#1105
1#
#1110
b0 6
0#
0%
#1115
1#
#1120
0#
1$
#1125
1#
#1130
0#
#1135
1#
0$
#1140
1!
0"
b10 6
0#
1%
#1145
1#
#1150
0!
1"
b100 6
0#
